{
    "status": "success",
    "message": "OK",
    "commentList": [
        {
            "id": "53",
            "userName": "demo",
            "fullName": "demo",
            "profileImage": "http://mindiii.com/mualab/./uploads/images/user/f1ea75139d7dab05c92f02c6b4f0720b.png",
            "chatId": "Lne4InrNK2YQkTtomyLsBuZ7Srr1",
            "firebaseToken": "0",
            "commentId": "107",
            "commentedBy": "53",
            "comment": "Optional(\"Dkfdfjjlsdfjdlfjfldjfldsfjdslfjdsfldsjfldsfjsdflkdjsfdkslfjdslkfjsdfljflkfjkldfjlkdjflksdfjsdklfjdslfkjsdlfjsldfjslkdfjdslkfjsdlkjfldksfjdklsfjdslfkjdsklfjdsflksjdflkjsfdfkjsdklfjdslf\")",
            "likeCount": "0",
            "crd": "2 months ago",
            "isLike": "0"
        },
        {
            "id": "53",
            "userName": "demo",
            "fullName": "demo",
            "profileImage": "http://mindiii.com/mualab/./uploads/images/user/f1ea75139d7dab05c92f02c6b4f0720b.png",
            "chatId": "Lne4InrNK2YQkTtomyLsBuZ7Srr1",
            "firebaseToken": "0",
            "commentId": "108",
            "commentedBy": "53",
            "comment": "Optional(\"Wwwwww\")",
            "likeCount": "0",
            "crd": "2 months ago",
            "isLike": "0"
        },
        {
            "id": "53",
            "userName": "demo",
            "fullName": "demo",
            "profileImage": "http://mindiii.com/mualab/./uploads/images/user/f1ea75139d7dab05c92f02c6b4f0720b.png",
            "chatId": "Lne4InrNK2YQkTtomyLsBuZ7Srr1",
            "firebaseToken": "0",
            "commentId": "109",
            "commentedBy": "53",
            "comment": "Optional(\"Dad added\")",
            "likeCount": "0",
            "crd": "2 months ago",
            "isLike": "0"
        },
        {
            "id": "53",
            "userName": "demo",
            "fullName": "demo",
            "profileImage": "http://mindiii.com/mualab/./uploads/images/user/f1ea75139d7dab05c92f02c6b4f0720b.png",
            "chatId": "Lne4InrNK2YQkTtomyLsBuZ7Srr1",
            "firebaseToken": "0",
            "commentId": "110",
            "commentedBy": "53",
            "comment": "Optional(\"Gfgfgfgf\")",
            "likeCount": "0",
            "crd": "2 months ago",
            "isLike": "0"
        },
        {
            "id": "53",
            "userName": "demo",
            "fullName": "demo",
            "profileImage": "http://mindiii.com/mualab/./uploads/images/user/f1ea75139d7dab05c92f02c6b4f0720b.png",
            "chatId": "Lne4InrNK2YQkTtomyLsBuZ7Srr1",
            "firebaseToken": "0",
            "commentId": "111",
            "commentedBy": "53",
            "comment": "Optional(\"Fgfgfgf\")",
            "likeCount": "0",
            "crd": "2 months ago",
            "isLike": "0"
        },
        {
            "id": "53",
            "userName": "demo",
            "fullName": "demo",
            "profileImage": "http://mindiii.com/mualab/./uploads/images/user/f1ea75139d7dab05c92f02c6b4f0720b.png",
            "chatId": "Lne4InrNK2YQkTtomyLsBuZ7Srr1",
            "firebaseToken": "0",
            "commentId": "112",
            "commentedBy": "53",
            "comment": "Optional(\"Wwwww\")",
            "likeCount": "0",
            "crd": "2 months ago",
            "isLike": "0"
        },
        {
            "id": "53",
            "userName": "demo",
            "fullName": "demo",
            "profileImage": "http://mindiii.com/mualab/./uploads/images/user/f1ea75139d7dab05c92f02c6b4f0720b.png",
            "chatId": "Lne4InrNK2YQkTtomyLsBuZ7Srr1",
            "firebaseToken": "0",
            "commentId": "118",
            "commentedBy": "53",
            "comment": "Optional(\"????????????\")",
            "likeCount": "0",
            "crd": "2 months ago",
            "isLike": "0"
        },
        {
            "id": "53",
            "userName": "demo",
            "fullName": "demo",
            "profileImage": "http://mindiii.com/mualab/./uploads/images/user/f1ea75139d7dab05c92f02c6b4f0720b.png",
            "chatId": "Lne4InrNK2YQkTtomyLsBuZ7Srr1",
            "firebaseToken": "0",
            "commentId": "120",
            "commentedBy": "53",
            "comment": "Optional(\"Qqqq\")",
            "likeCount": "0",
            "crd": "2 months ago",
            "isLike": "0"
        },
        {
            "id": "53",
            "userName": "demo",
            "fullName": "demo",
            "profileImage": "http://mindiii.com/mualab/./uploads/images/user/f1ea75139d7dab05c92f02c6b4f0720b.png",
            "chatId": "Lne4InrNK2YQkTtomyLsBuZ7Srr1",
            "firebaseToken": "0",
            "commentId": "121",
            "commentedBy": "53",
            "comment": "Optional(\"Wwww\")",
            "likeCount": "0",
            "crd": "2 months ago",
            "isLike": "0"
        },
        {
            "id": "53",
            "userName": "demo",
            "fullName": "demo",
            "profileImage": "http://mindiii.com/mualab/./uploads/images/user/f1ea75139d7dab05c92f02c6b4f0720b.png",
            "chatId": "Lne4InrNK2YQkTtomyLsBuZ7Srr1",
            "firebaseToken": "0",
            "commentId": "122",
            "commentedBy": "53",
            "comment": "Optional(\"????????????\")",
            "likeCount": "0",
            "crd": "2 months ago",
            "isLike": "0"
        },
        {
            "id": "53",
            "userName": "demo",
            "fullName": "demo",
            "profileImage": "http://mindiii.com/mualab/./uploads/images/user/f1ea75139d7dab05c92f02c6b4f0720b.png",
            "chatId": "Lne4InrNK2YQkTtomyLsBuZ7Srr1",
            "firebaseToken": "0",
            "commentId": "124",
            "commentedBy": "53",
            "comment": "Optional(\"Sdssdsdsd\")",
            "likeCount": "0",
            "crd": "2 months ago",
            "isLike": "0"
        }
    ]
}